2375839.8752754596	1792/09/22 09:00:24 GMT
2376205.1217106595	1793/09/22 14:55:16 GMT
2376570.3656512364	1794/09/22 20:46:32 GMT
2376935.6029597083	1795/09/23 02:28:16 GMT
2377300.8500057743	1796/09/22 08:24:00 GMT
2377666.0911017084	1797/09/22 14:11:11 GMT
2378031.3267178033	1798/09/22 19:50:28 GMT
2378396.5704304697	1799/09/23 01:41:25 GMT
2378761.8095540493	1800/09/23 07:25:45 GMT
2379127.0508532360	1801/09/23 13:13:14 GMT
2379492.2930961987	1802/09/23 19:02:04 GMT
2379857.5302977213	1803/09/24 00:43:38 GMT
2380222.7774975747	1804/09/23 06:39:36 GMT
2380588.0204382897	1805/09/23 12:29:26 GMT
2380953.2555235266	1806/09/23 18:07:57 GMT
2381318.5012904173	1807/09/24 00:01:51 GMT
2381683.7440180886	1808/09/23 05:51:23 GMT
2382048.9876367953	1809/09/23 11:42:12 GMT
2382414.2338552275	1810/09/23 17:36:45 GMT
2382779.4724466065	1811/09/23 23:20:19 GMT
2383144.7192011415	1812/09/23 05:15:39 GMT
2383509.9637887590	1813/09/23 11:07:51 GMT
2383875.1987753855	1814/09/23 16:46:14 GMT
2384240.4458709640	1815/09/23 22:42:03 GMT
2384605.6894832220	1816/09/23 04:32:51 GMT
2384970.9292430120	1817/09/23 10:18:07 GMT
2385336.1731583467	1818/09/23 16:09:21 GMT
2385701.4078078666	1819/09/23 21:47:15 GMT
2386066.6514027286	1820/09/23 03:38:01 GMT
2386431.8948461176	1821/09/23 09:28:35 GMT
2386797.1272286960	1822/09/23 15:03:13 GMT
2387162.3722596928	1823/09/23 20:56:03 GMT
2387527.6155873067	1824/09/23 02:46:27 GMT
2387892.8551735710	1825/09/23 08:31:27 GMT
2388258.1029908196	1826/09/23 14:28:18 GMT
2388623.3428955710	1827/09/23 20:13:46 GMT
2388988.5900271903	1828/09/23 02:09:38 GMT
2389353.8369440767	1829/09/23 08:05:12 GMT
2389719.0705121520	1830/09/23 13:41:32 GMT
2390084.3160171197	1831/09/23 19:35:04 GMT
2390449.5611254770	1832/09/23 01:28:01 GMT
2390814.8002320384	1833/09/23 07:12:20 GMT
2391180.0461925347	1834/09/23 13:06:31 GMT
2391545.2844918924	1835/09/23 18:49:40 GMT
2391910.5266067153	1836/09/23 00:38:19 GMT
2392275.7719386770	1837/09/23 06:31:36 GMT
2392641.0046450140	1838/09/23 12:06:41 GMT
2393006.2491052095	1839/09/23 17:58:43 GMT
2393371.4950133357	1840/09/22 23:52:49 GMT
2393736.7317437300	1841/09/23 05:33:43 GMT
2394101.9758328344	1842/09/23 11:25:12 GMT
2394467.2149745530	1843/09/23 17:09:34 GMT
2394832.4566474090	1844/09/22 22:57:34 GMT
2395197.7041428047	1845/09/23 04:53:58 GMT
2395562.9383265670	1846/09/23 10:31:11 GMT
2395928.1823439980	1847/09/23 16:22:35 GMT
2396293.4306697235	1848/09/22 22:20:10 GMT
2396658.6688533250	1849/09/23 04:03:09 GMT
2397023.9165568454	1850/09/23 09:59:51 GMT
2397389.1601373497	1851/09/23 15:50:36 GMT
2397754.4031215794	1852/09/22 21:40:30 GMT
2398119.6501481235	1853/09/23 03:36:13 GMT
2398484.8831406557	1854/09/23 09:11:43 GMT
2398850.1239297670	1855/09/23 14:58:28 GMT
2399215.3705510776	1856/09/22 20:53:36 GMT
2399580.6057425593	1857/09/23 02:32:16 GMT
2399945.8486402053	1858/09/23 08:22:03 GMT
2400311.0889685303	1859/09/23 14:08:07 GMT
2400676.3282908060	1860/09/22 19:52:44 GMT
2401041.5740398370	1861/09/23 01:46:37 GMT
2401406.8099800646	1862/09/23 07:26:22 GMT
2401772.0531305247	1863/09/23 13:16:30 GMT
2402137.3029834875	1864/09/22 19:16:18 GMT
2402502.5413771654	1865/09/23 00:59:35 GMT
2402867.7850499400	1866/09/23 06:50:28 GMT
2403233.0300212740	1867/09/23 12:43:14 GMT
2403598.2719270783	1868/09/22 18:31:34 GMT
2403963.5192890684	1869/09/23 00:27:47 GMT
2404328.7567184307	1870/09/23 06:09:40 GMT
2404693.9973937944	1871/09/23 11:56:15 GMT
2405059.2454858893	1872/09/22 17:53:30 GMT
2405424.4829002293	1873/09/22 23:35:23 GMT
2405789.7242949590	1874/09/23 05:22:59 GMT
2406154.9688699543	1875/09/23 11:15:10 GMT
2406520.2076086802	1876/09/22 16:58:57 GMT
2406885.4502240894	1877/09/22 22:48:19 GMT
2407250.6852749223	1878/09/23 04:26:48 GMT
2407615.9233372420	1879/09/23 10:09:36 GMT
2407981.1713914830	1880/09/22 16:06:48 GMT
2408346.4097731970	1881/09/22 21:50:04 GMT
2408711.6514881700	1882/09/23 03:38:09 GMT
2409076.8976788507	1883/09/23 09:32:39 GMT
2409442.1399499180	1884/09/22 15:21:32 GMT
2409807.3861569096	1885/09/22 21:16:04 GMT
2410172.6279445890	1886/09/23 03:04:14 GMT
2410537.8708788007	1887/09/23 08:54:04 GMT
2410903.1206674473	1888/09/22 14:53:46 GMT
2411268.3599339616	1889/09/22 20:38:18 GMT
2411633.5992521127	1890/09/23 02:22:55 GMT
2411998.8431528527	1891/09/23 08:14:08 GMT
2412364.0833054030	1892/09/22 13:59:58 GMT
2412729.3238249347	1893/09/22 19:46:18 GMT
2413094.5609328253	1894/09/23 01:27:45 GMT
2413459.7989034930	1895/09/23 07:10:25 GMT
2413825.0438291896	1896/09/22 13:03:07 GMT
2414190.2839286067	1897/09/22 18:48:51 GMT
2414555.5239376244	1898/09/23 00:34:28 GMT
2414920.7708956970	1899/09/23 06:30:05 GMT
2415286.0143534730	1900/09/23 12:20:40 GMT
2415651.2561457470	1901/09/23 18:08:51 GMT
2416016.4968425576	1902/09/23 23:55:27 GMT
2416381.7388865207	1903/09/24 05:44:00 GMT
2416746.9863822080	1904/09/23 11:40:23 GMT
2417112.2293893380	1905/09/23 17:30:19 GMT
2417477.4690872220	1906/09/23 23:15:29 GMT
2417842.7146066950	1907/09/24 05:09:02 GMT
2418207.9576040846	1908/09/23 10:58:57 GMT
2418573.1979060190	1909/09/23 16:44:59 GMT
2418938.4381993287	1910/09/23 22:31:00 GMT
2419303.6790719920	1911/09/24 04:17:52 GMT
2419668.9226015853	1912/09/23 10:08:33 GMT
2420034.1617074220	1913/09/23 15:52:52 GMT
2420399.3989642380	1914/09/23 21:34:31 GMT
2420764.6419106843	1915/09/24 03:24:21 GMT
2421129.8857483035	1916/09/23 09:15:29 GMT
2421495.1253673118	1917/09/23 15:00:32 GMT
2421860.3653211785	1918/09/23 20:46:04 GMT
2422225.6083245245	1919/09/24 02:35:59 GMT
2422590.8534179450	1920/09/23 08:28:55 GMT
2422956.0973015763	1921/09/23 14:20:07 GMT
2423321.3403892520	1922/09/23 20:10:10 GMT
2423686.5860732757	1923/09/24 02:03:57 GMT
2424051.8327068660	1924/09/23 07:59:06 GMT
2424417.0719397822	1925/09/23 13:43:36 GMT
2424782.3105081720	1926/09/23 19:27:08 GMT
2425147.5539704203	1927/09/24 01:17:43 GMT
2425512.7957458324	1928/09/23 07:05:52 GMT
2425878.0366421766	1929/09/23 12:52:46 GMT
2426243.2756292400	1930/09/23 18:36:54 GMT
2426608.5165903694	1931/09/24 00:23:53 GMT
2426973.7614773580	1932/09/23 06:16:32 GMT
2427339.0006930395	1933/09/23 12:01:00 GMT
2427704.2397785940	1934/09/23 17:45:17 GMT
2428069.4852162840	1935/09/23 23:38:43 GMT
2428434.7267436106	1936/09/23 05:26:31 GMT
2428799.9675520193	1937/09/23 11:13:16 GMT
2429165.2087057330	1938/09/23 17:00:32 GMT
2429530.4513631747	1939/09/23 22:49:58 GMT
2429895.6986642010	1940/09/23 04:46:05 GMT
2430260.9397467460	1941/09/23 10:33:14 GMT
2430626.1784664276	1942/09/23 16:16:59 GMT
2430991.4249538933	1943/09/23 22:11:56 GMT
2431356.6680691154	1944/09/23 04:02:01 GMT
2431721.9095928340	1945/09/23 09:49:49 GMT
2432087.1539251570	1946/09/23 15:41:39 GMT
2432452.3954107690	1947/09/23 21:29:23 GMT
2432817.6404976076	1948/09/23 03:22:19 GMT
2433182.8793879934	1949/09/23 09:06:19 GMT
2433548.1142217770	1950/09/23 14:44:29 GMT
2433913.3593932270	1951/09/23 20:37:32 GMT
2434278.6002994130	1952/09/23 02:24:26 GMT
2434643.8378106607	1953/09/23 08:06:27 GMT
2435009.0807973200	1954/09/23 13:56:21 GMT
2435374.3204776794	1955/09/23 19:41:29 GMT
2435739.5666287327	1956/09/23 01:35:57 GMT
2436104.8101611870	1957/09/23 07:26:38 GMT
2436470.0483110063	1958/09/23 13:09:34 GMT
2436835.2979395106	1959/09/23 19:09:02 GMT
2437200.5412347633	1960/09/23 00:59:23 GMT
2437565.7799197520	1961/09/23 06:43:05 GMT
2437931.0253737730	1962/09/23 12:36:32 GMT
2438296.2667569844	1963/09/23 18:24:08 GMT
2438661.5121072996	1964/09/23 00:17:26 GMT
2439026.7546399715	1965/09/23 06:06:41 GMT
2439391.9889551120	1966/09/23 11:44:06 GMT
2439757.2351954114	1967/09/23 17:38:41 GMT
2440122.4770975374	1968/09/22 23:27:01 GMT
2440487.7134985966	1969/09/23 05:07:26 GMT
2440852.9582184860	1970/09/23 10:59:50 GMT
2441218.1981295040	1971/09/23 16:45:18 GMT
2441583.4398151910	1972/09/22 22:33:20 GMT
2441948.6818368374	1973/09/23 04:21:51 GMT
2442313.9163872423	1974/09/23 09:59:36 GMT
2442679.1636431958	1975/09/23 15:55:39 GMT
2443044.4092840160	1976/09/22 21:49:22 GMT
2443409.6459945340	1977/09/23 03:30:14 GMT
2443774.8935271236	1978/09/23 09:26:41 GMT
2444140.1369350550	1979/09/23 15:17:11 GMT
2444505.3815269796	1980/09/22 21:09:24 GMT
2444870.6289067030	1981/09/23 03:05:38 GMT
2445235.8660546774	1982/09/23 08:47:07 GMT
2445601.1127473926	1983/09/23 14:42:21 GMT
2445966.3571001470	1984/09/22 20:34:13 GMT
2446331.5892276266	1985/09/23 02:08:29 GMT
2446696.8333660620	1986/09/23 08:00:03 GMT
2447062.0736928787	1987/09/23 13:46:07 GMT
2447427.3126549674	1988/09/22 19:30:13 GMT
2447792.5559299050	1989/09/23 01:20:32 GMT
2448157.7892338308	1990/09/23 06:56:30 GMT
2448523.0339831063	1991/09/23 12:48:56 GMT
2448888.2804448996	1992/09/22 18:43:50 GMT
2449253.5163678900	1993/09/23 00:23:34 GMT
2449618.7643152755	1994/09/23 06:20:37 GMT
2449984.0098401583	1995/09/23 12:14:10 GMT
2450349.2509623290	1996/09/22 18:01:23 GMT
2450714.4976488920	1997/09/22 23:56:37 GMT
2451079.7351405080	1998/09/23 05:38:36 GMT
2451444.9809955703	1999/09/23 11:32:38 GMT
2451810.2284056335	2000/09/22 17:28:54 GMT
2452175.4622151910	2001/09/22 23:05:35 GMT
2452540.7060037865	2002/09/23 04:56:39 GMT
2452905.9500641385	2003/09/23 10:48:06 GMT
2453271.1882480820	2004/09/22 16:31:05 GMT
2453636.4331967114	2005/09/22 22:23:48 GMT
2454001.6699626930	2006/09/23 04:04:45 GMT
2454366.9111713846	2007/09/23 09:52:05 GMT
2454732.1567489235	2008/09/22 15:45:43 GMT
2455097.3887567637	2009/09/22 21:19:49 GMT
2455462.6323015196	2010/09/23 03:10:31 GMT
2455827.8790115040	2011/09/23 09:05:47 GMT
2456193.1181874970	2012/09/22 14:50:11 GMT
2456558.3644827087	2013/09/22 20:44:51 GMT
2456923.6045639743	2014/09/23 02:30:34 GMT
2457288.8483097656	2015/09/23 08:21:34 GMT
2457654.0987210185	2016/09/22 14:22:09 GMT
2458019.3351596557	2017/09/22 20:02:38 GMT
2458384.5800004770	2018/09/23 01:55:12 GMT
2458749.8271078570	2019/09/23 07:51:02 GMT
2459115.0639015570	2020/09/22 13:32:01 GMT
2459480.3070176040	2021/09/22 19:22:06 GMT
2459845.5453523130	2022/09/23 01:05:18 GMT
2460210.7856015370	2023/09/23 06:51:16 GMT
2460576.0311629090	2024/09/22 12:44:52 GMT
2460941.2643828650	2025/09/22 18:20:43 GMT
2461306.5046262816	2026/09/23 00:06:40 GMT
2461671.7517137476	2027/09/23 06:02:28 GMT
2462036.9904808820	2028/09/22 11:46:18 GMT
2462402.2354791868	2029/09/22 17:39:05 GMT
2462767.4780525723	2030/09/22 23:28:24 GMT
2463132.7198720040	2031/09/23 05:16:37 GMT
2463497.9666583333	2032/09/22 11:11:59 GMT
2463863.2034854847	2033/09/22 16:53:01 GMT
2464228.4451278730	2034/09/22 22:40:59 GMT
2464593.6944854540	2035/09/23 04:40:04 GMT
2464958.9338843375	2036/09/22 10:24:48 GMT
2465324.1763946875	2037/09/22 16:14:01 GMT
2465689.4192960565	2038/09/22 22:03:47 GMT
2466054.6601552400	2039/09/23 03:50:37 GMT
2466419.9070089640	2040/09/22 09:46:06 GMT
2466785.1444651710	2041/09/22 15:28:02 GMT
2467150.3840146600	2042/09/22 21:12:59 GMT
2467515.6304060696	2043/09/23 03:07:47 GMT
2467880.8673652513	2044/09/22 08:49:00 GMT
2468246.1068856316	2045/09/22 14:33:55 GMT
2468611.3494711984	2046/09/22 20:23:14 GMT
2468976.5897961780	2047/09/23 02:09:18 GMT
2469341.8347059880	2048/09/22 08:01:59 GMT
2469707.0722693717	2049/09/22 13:44:04 GMT
2470072.3124526474	2050/09/22 19:29:56 GMT
2470437.5612798550	2051/09/23 01:28:15 GMT
2470802.8035487887	2052/09/22 07:17:07 GMT
2471168.0467270740	2053/09/22 13:07:17 GMT
2471533.2921683820	2054/09/22 19:00:43 GMT
2471898.5348400250	2055/09/23 00:50:10 GMT
2472263.7784345006	2056/09/22 06:40:57 GMT
2472629.0173955625	2057/09/22 12:25:03 GMT
2472994.2569964390	2058/09/22 18:10:04 GMT
2473359.5032176520	2059/09/23 00:04:38 GMT
2473724.7430757580	2060/09/22 05:50:02 GMT
2474089.9810870844	2061/09/22 11:32:46 GMT
2474455.2232782530	2062/09/22 17:21:31 GMT
2474820.4652479490	2063/09/22 23:09:57 GMT
2475185.7073296190	2064/09/22 04:58:33 GMT
2475550.9472796093	2065/09/22 10:44:05 GMT
2475916.1866821910	2066/09/22 16:28:49 GMT
2476281.4315778674	2067/09/22 22:21:28 GMT
2476646.6729973517	2068/09/22 04:09:07 GMT
2477011.9122972176	2069/09/22 09:53:42 GMT
2477377.1575826850	2070/09/22 15:46:55 GMT
2477742.4026048006	2071/09/22 21:39:45 GMT
2478107.6457657116	2072/09/22 03:29:54 GMT
2478472.8869239804	2073/09/22 09:17:10 GMT
2478838.1289456330	2074/09/22 15:05:41 GMT
2479203.3753622877	2075/09/22 21:00:31 GMT
2479568.6196007440	2076/09/22 02:52:14 GMT
2479933.8594946074	2077/09/22 08:37:40 GMT
2480299.1020586556	2078/09/22 14:26:58 GMT
2480664.3441844573	2079/09/22 20:15:38 GMT
2481029.5824453775	2080/09/22 01:58:43 GMT
2481394.8194863150	2081/09/22 07:40:04 GMT
2481760.0593646540	2082/09/22 13:25:29 GMT
2482125.3013656717	2083/09/22 19:13:58 GMT
2482490.5428068810	2084/09/22 01:01:39 GMT
2482855.7817976857	2085/09/22 06:45:47 GMT
2483221.0240682657	2086/09/22 12:34:39 GMT
2483586.2716111090	2087/09/22 18:31:07 GMT
2483951.5144333710	2088/09/22 00:20:47 GMT
2484316.7565338200	2089/09/22 06:09:25 GMT
2484682.0014328050	2090/09/22 12:02:04 GMT
2485047.2451878090	2091/09/22 17:53:04 GMT
2485412.4891145550	2092/09/21 23:44:19 GMT
2485777.7303306480	2093/09/22 05:31:41 GMT
2486142.9719227390	2094/09/22 11:19:34 GMT
2486508.2182830013	2095/09/22 17:14:20 GMT
2486873.4566458240	2096/09/21 22:57:34 GMT
2487238.6934273480	2097/09/22 04:38:32 GMT
2487603.9355030320	2098/09/22 10:27:07 GMT
2487969.1762943473	2099/09/22 16:13:52 GMT
2488334.4188107965	2100/09/22 22:03:05 GMT
